<?xml version="1.0" encoding="utf-8"?>
<COLLADA xmlns="http://www.collada.org/2005/11/COLLADASchema" version="1.4.1" xmlns:xsi="http://www.w3.org/2001/XMLSchema-instance">
  <asset>
    <contributor>
      <author>Blender User</author>
      <authoring_tool>Blender 2.93.0 commit date:2021-06-02, commit time:11:21, hash:84da05a8b806</authoring_tool>
    </contributor>
    <created>2021-06-11T23:25:41</created>
    <modified>2021-06-11T23:25:41</modified>
    <unit name="meter" meter="1"/>
    <up_axis>Z_UP</up_axis>
  </asset>
  <library_effects>
    <effect id="Server-effect">
      <profile_COMMON>
        <technique sid="common">
          <lambert>
            <emission>
              <color sid="emission">0 0 0 1</color>
            </emission>
            <diffuse>
              <color sid="diffuse">0 0 0 1</color>
            </diffuse>
            <index_of_refraction>
              <float sid="ior">1.45</float>
            </index_of_refraction>
          </lambert>
        </technique>
      </profile_COMMON>
    </effect>
    <effect id="Blue_Server_Light-effect">
      <profile_COMMON>
        <technique sid="common">
          <lambert>
            <emission>
              <color sid="emission">0 0.261167 1 1</color>
            </emission>
            <diffuse>
              <color sid="diffuse">0 0.225598 0.8000001 1</color>
            </diffuse>
            <index_of_refraction>
              <float sid="ior">1.45</float>
            </index_of_refraction>
          </lambert>
        </technique>
      </profile_COMMON>
    </effect>
  </library_effects>
  <library_images/>
  <library_materials>
    <material id="Server-material" name="Server">
      <instance_effect url="#Server-effect"/>
    </material>
    <material id="Blue_Server_Light-material" name="Blue Server Light">
      <instance_effect url="#Blue_Server_Light-effect"/>
    </material>
  </library_materials>
  <library_geometries>
    <geometry id="Cube_002-mesh" name="Cube.002">
      <mesh>
        <source id="Cube_002-mesh-positions">
          <float_array id="Cube_002-mesh-positions-array" count="720">-6 -2.62268e-7 0 -6 -2.62268e-7 6.3 0 0 0 0 0 6 -6 -6 0 -6 -6 6.3 2.62268e-7 -6 0 2.62268e-7 -6 6.3 -6 -2.62268e-7 0.4844121 -6 -2.62268e-7 5.515588 0 0 5.515588 0 0 0.4844118 2.62268e-7 -6 5.515588 2.62268e-7 -6 0.4844118 -6 -6 5.515588 -6 -6 0.4844118 -5.530645 -0.4693554 0.8779802 -5.530645 -0.4693554 5.12202 -0.4693551 -0.4693551 5.12202 -0.4693551 -0.4693551 0.8779798 -0.4693549 -5.530645 5.12202 -0.4693549 -5.530645 0.8779798 -5.530644 -5.530645 5.12202 -5.530644 -5.530645 0.8779798 1.49204e-7 -3.413384 0 0 -2.586616 0 0 -2.586616 6 1.49204e-7 -3.413384 6.3 -6 -2.586616 0 -6 -3.413384 0 -6 -3.413384 6.3 -6 -2.586616 6.3 -6 -3.413384 0.484412 -6 -2.586616 0.484412 -6 -3.413384 5.515588 -6 -2.586616 5.515588 0 -2.586616 0.4844118 1.49204e-7 -3.413384 0.4844118 0 -2.586616 5.515588 1.49204e-7 -3.413384 5.515588 -5.530645 -3.34871 0.87798 -5.530645 -2.651291 0.87798 -5.530645 -3.34871 5.12202 -5.530645 -2.651291 5.12202 -0.469355 -2.65129 0.8779798 -0.4693549 -3.348709 0.8779798 -0.469355 -2.65129 5.12202 -0.4693549 -3.348709 5.12202 -0.5555089 -3.413384 0 -0.555509 -2.586616 0 -0.555509 -2.586616 6 -0.5555089 -3.413384 6 -5.444491 -2.586616 0 -5.444491 -3.413384 0 -5.444491 -3.413384 6 -5.444491 -2.586616 6 -5.444491 -3.413384 0.484412 -5.444491 -2.586616 0.484412 -5.444491 -3.413384 5.515588 -5.444491 -2.586616 5.515588 -0.555509 -2.586616 0.4844118 -0.5555089 -3.413384 0.4844118 -0.555509 -2.586616 5.515588 -0.5555089 -3.413384 5.515588 -5.062046 -3.34871 0.87798 -5.062046 -2.651291 0.87798 -5.062046 -3.34871 5.12202 -5.062046 -2.651291 5.12202 -0.9379537 -2.65129 0.8779798 -0.9379537 -3.348709 0.8779798 -0.9379537 -2.65129 5.12202 -0.9379537 -3.348709 5.12202 -5.860008 -0.1399926 2.29266 -5.860008 -0.1399926 3.70734 -0.1399923 -0.1399923 3.70734 -0.1399923 -0.1399923 2.29266 -0.1399921 -5.860008 3.70734 -0.1399921 -5.860008 2.29266 -5.860007 -5.860008 3.70734 -5.860007 -5.860008 2.29266 -0.1399922 -2.605906 3.70734 -0.1399922 -2.605906 2.29266 -0.1399922 -3.394094 3.70734 -0.1399922 -3.394094 2.29266 -5.860008 -3.394094 3.70734 -5.860008 -3.394094 2.29266 -5.860008 -2.605906 3.70734 -5.860008 -2.605906 2.29266 -0.669579 -2.605906 3.70734 -0.669579 -2.605906 2.29266 -0.669579 -3.394094 3.70734 -0.669579 -3.394094 2.29266 -5.330421 -3.394094 3.70734 -5.330421 -3.394094 2.29266 -5.330421 -2.605906 3.70734 -5.330421 -2.605906 2.29266 -3 -1.31134e-7 0 -3 -1.31134e-7 6.3 -3 -6 0 -3 -6 6.3 -3 -6 0.4844118 -3 -6 5.515588 -3 -1.31134e-7 0.484412 -3 -1.31134e-7 5.515588 -3 -5.530645 0.8779798 -3 -5.530645 5.12202 -3 -0.4693552 0.87798 -3 -0.4693552 5.12202 -3 -3.413384 6.3 -3 -2.586616 6.3 -3 -2.586616 0 -3 -3.413384 0 -3 -3.413384 6 -3 -2.586616 6 -3 -2.586616 0 -3 -3.413384 0 -3 -0.1399925 2.29266 -3 -0.1399925 3.70734 -3 -1.31134e-7 6.3 0 0 6.3 0 -2.586616 6.3 -3 -2.586616 6.3 -5.264412 -0.1399925 2.439964 -5.264412 -0.1399925 3.560037 -0.7355883 -0.1399924 3.560037 -0.7355883 -0.1399924 2.439963 -3 -0.1399925 2.439963 -3 -0.1399925 3.560037 -5.145224 -0.4500002 2.469441 -5.145224 -0.4500002 3.530559 -0.8547764 -0.4500001 3.530559 -0.8547764 -0.4500001 2.469441 -3 -0.4500001 2.469441 -3 -0.4500001 3.530559 -5.695326 -0.304674 4.41468 -0.3046737 -0.3046737 4.41468 -0.3046735 -5.695326 4.41468 -5.695325 -5.695326 4.41468 -0.3046736 -2.628598 4.41468 -0.3046736 -3.371402 4.41468 -5.695326 -3.371402 4.41468 -5.695326 -2.628598 4.41468 -0.8037664 -2.628598 4.41468 -0.8037664 -3.371402 4.41468 -5.196234 -3.371402 4.41468 -5.196234 -2.628598 4.41468 -3 -0.3046739 4.41468 -3 -5.695326 4.41468 -0.3046737 -0.3046737 1.58532 -0.3046735 -5.695326 1.58532 -5.695325 -5.695326 1.58532 -0.3046736 -2.628598 1.58532 -0.3046736 -3.371402 1.58532 -5.695326 -3.371402 1.58532 -5.695326 -2.628598 1.58532 -0.8037664 -2.628598 1.58532 -0.8037664 -3.371402 1.58532 -5.196234 -3.371402 1.58532 -5.196234 -2.628598 1.58532 -5.695326 -0.304674 1.58532 -3 -5.695326 1.58532 -3 -0.3046739 1.58532 -1.5 0 6 -1.5 -6 0 -1.5 0 0.4844118 -1.5 0 5.515588 -1.734678 -0.4693552 0.8779799 -1.734678 -0.4693552 5.12202 -1.569996 -0.1399924 2.29266 -1.569996 -0.1399924 3.70734 -1.5 0 0 -1.5 -6 6.3 -1.5 -6 0.4844118 -1.5 -6 5.515588 -1.734677 -5.530645 0.8779798 -1.734677 -5.530645 5.12202 -1.5 -3.413384 6.3 -1.5 -2.586616 6 -1.5 -2.586616 0 -1.5 -3.413384 0 -1.777754 -3.413384 6 -1.777754 -2.586616 6 -1.777754 -2.586616 0 -1.777754 -3.413384 0 -1.569996 -5.860008 2.29266 -1.569996 -5.860008 3.70734 -1.5 0 6.3 -1.5 -2.586616 6.3 -1.867794 -0.1399924 2.439963 -1.867794 -0.1399924 3.560037 -1.927388 -0.4500001 2.469441 -1.927388 -0.4500001 3.530559 -1.652337 -5.695326 4.41468 -1.652337 -0.3046738 4.41468 -1.652337 -5.695326 1.58532 -1.652337 -0.3046738 1.58532 -4.5 -1.96701e-7 0 -4.5 -6 6.3 -4.5 -6 0.4844118 -4.5 -6 5.515588 -4.265322 -5.530645 0.8779798 -4.265322 -5.530645 5.12202 -4.5 -3.413384 6.3 -4.5 -2.586616 6.3 -4.5 -2.586616 0 -4.5 -3.413384 0 -4.222245 -3.413384 6 -4.222245 -2.586616 6 -4.222245 -2.586616 0 -4.222245 -3.413384 0 -4.430003 -5.860008 2.29266 -4.430003 -5.860008 3.70734 -4.5 -1.96701e-7 6.3 -4.5 -6 0 -4.5 -1.96701e-7 0.484412 -4.5 -1.96701e-7 5.515588 -4.265323 -0.4693553 0.8779801 -4.265323 -0.4693553 5.12202 -4.430004 -0.1399925 2.29266 -4.430004 -0.1399925 3.70734 -4.132206 -0.1399925 2.439963 -4.132206 -0.1399925 3.560037 -4.072612 -0.4500002 2.469441 -4.072612 -0.4500002 3.530559 -4.347663 -0.3046739 4.41468 -4.347662 -5.695326 4.41468 -4.347663 -0.3046739 1.58532 -4.347662 -5.695326 1.58532 -1.683741 -5.625791 2.348923 -3 -5.625791 2.348923 -1.683741 -5.625791 3.651077 -3 -5.625791 3.651077 -3 -5.474209 4.302154 -1.759532 -5.474209 4.302154 -3 -5.474209 1.697846 -1.759532 -5.474209 1.697846 -4.316258 -5.625791 2.348923 -4.316258 -5.625791 3.651077 -4.240467 -5.474209 4.302154 -4.240467 -5.474209 1.697846</float_array>
          <technique_common>
            <accessor source="#Cube_002-mesh-positions-array" count="240" stride="3">
              <param name="X" type="float"/>
              <param name="Y" type="float"/>
              <param name="Z" type="float"/>
            </accessor>
          </technique_common>
        </source>
        <source id="Cube_002-mesh-normals">
          <float_array id="Cube_002-mesh-normals-array" count="966">0 1 0 1 0 0 3.17891e-7 -1 0 -1 0 0 0 0 -1 0 0 1 4.65096e-7 -0.6425318 -0.7662591 3.17891e-7 -1 0 0.642532 0 -0.7662588 1 0 0 -4.42661e-7 0.6425311 -0.7662596 0 1 0 -0.6425312 -3.03984e-7 0.7662597 -0.9739523 0 0.2267531 3.65393e-7 -0.9739527 0.2267517 0.9739521 0 0.2267537 -1.21797e-7 0.9739522 0.2267535 -0.6425312 0 -0.7662596 0 0.6425313 0.7662595 0.6425312 0 0.7662596 0 -0.6425307 0.76626 0.6425309 0 0.7662599 0 1 2.60088e-6 -0.642531 -3.00963e-7 -0.7662597 0 -0.9867653 -0.162155 0.9739522 0 0.2267537 0 1 0 -0.9739522 -2.82526e-7 0.2267532 0 -0.9867655 -0.1621545 -0.6425312 0 0.7662596 0 -1 0 1 0 0 0 0.9867654 -0.1621548 0.6425308 0 -0.7662599 -1 -3.8056e-7 0 0 -0.9994859 0.03206413 -5.65334e-7 0 1 -1 -4.70028e-7 0 0 0.9994859 -0.03206413 1 0 0 0 0.9867652 0.162156 0.7171686 1.3137e-7 0.6968997 -0.7171685 0 -0.6968998 0.9824773 0 0.186383 -0.9824771 0 0.1863834 -0.7171686 0 0.6968998 1 0 0 0.7171694 0 -0.6968989 0 0.9867653 -0.1621548 0 0.9867656 0.1621533 0 -0.9867655 0.1621538 0 -0.9994859 -0.03206479 0 -0.9867655 0.1621536 0 0.9994859 0.03206473 0 0.9994859 -0.03206408 0 -0.9994859 0.03206461 -0.9824773 0 -0.1863824 0.9824773 0 -0.1863826 0 0.9994859 0.03206461 0 -0.9994859 -0.03206479 -0.9739521 0 -0.2267541 0.9739522 0 -0.2267534 1 0 0 0 0.9739522 -0.2267534 0 1 -1.41482e-7 0.9739523 0 -0.2267532 1 0 0 3.43157e-7 -0.973952 -0.2267547 3.33452e-7 -1 0 -0.9739521 -4.78972e-7 -0.2267541 -1 2.92514e-7 0 -0.8992617 -0.437402 -0.002847731 -0.8992611 -0.4374032 0.002845823 0 1 1.78695e-7 0 0.9739523 -0.2267534 0 -1 -1.43063e-6 0 -0.6425318 0.766259 0 0.6425311 0.7662597 0 0.9739522 0.2267535 0 -0.9739526 0.2267519 0 1 0 0 0.6425312 -0.7662596 0 -0.6425313 -0.7662595 0 1 0 -9.83189e-7 0 1 0 1 0 1 0 0 -1.67541e-7 0.09466046 0.9955096 -0.9333918 0.3588591 0 0 1 1.76852e-7 0 1 0 0 1 0 0 1 0 0 1 0 0 1 0 -3.3811e-7 0.09465968 0.9955097 0.9333918 0.3588591 0 -6.76219e-7 0.09466046 -0.9955096 5.46249e-7 0.09466046 -0.9955096 0.8992629 -0.4373994 0.002847731 0 0.9739522 0.2267536 0 -0.9994859 -0.03206443 0 0.9994859 -0.03206467 0 -0.9994859 -0.03206449 -0.9824773 0 0.1863826 0.9824773 0 0.1863828 0 0.9994859 -0.03206455 -0.9739521 -5.32515e-7 0.2267541 0.9739522 0 0.2267536 0 0.9739522 0.2267534 0.9739521 0 0.2267537 2.29568e-7 -0.9739518 0.2267554 -0.9739521 0 0.2267541 0 0.9739523 -0.2267534 0 -0.9739522 -0.2267532 -0.9739524 0 -0.2267529 3.86078e-7 -0.9739525 -0.2267522 0.9739523 0 -0.2267535 0 0.9739522 -0.2267534 0.9739523 0 -0.2267535 -0.9739524 -3.00911e-7 -0.2267528 0 0.9994859 0.03206425 0.9824773 0 -0.1863827 -0.9824771 0 -0.1863832 0 -0.9994858 0.03206503 0 0.9994859 0.0320639 0 -0.9994859 0.03206455 0 0.9739522 -0.2267535 0 -0.9739524 -0.2267529 0 0.9739523 0.2267533 0 -0.9739524 0.2267531 6.3002e-7 0.0946604 -0.9955096 0 0.09465968 0.9955098 0 1 0 0 1 0 0 1 0 0 -0.6425318 -0.766259 0 -0.9739527 0.2267519 0 0.6425312 0.7662596 0 -0.9739516 -0.2267562 0 1 1.41482e-7 0 0.9739522 -0.2267535 -1.95066e-7 1 0 0 -0.6425312 0.7662596 -1.21798e-7 0.9739522 0.2267535 0 1 0 -2.2133e-7 0.6425312 -0.7662596 0 -0.9739522 -0.2267534 0 0.9739522 -0.2267537 0 -0.453548 -0.891232 0 0.9739522 0.2267534 0 0.0946604 -0.9955096 0 1 0 0 1 0 5.46249e-7 0.09465968 0.9955097 0 1 0 0 0.9739523 0.2267534 1.29746e-7 -0.6425314 0.7662594 0 0.9739523 -0.2267533 0 1 0 0 -0.4535479 -0.8912319 0.8995343 -0.4368501 0 0 0.6425311 0.7662597 0 -0.9739525 0.2267525 0 -0.6425312 -0.7662596 0 -0.9739519 -0.2267547 0 -0.9739523 0.2267529 0 -0.9739525 0.2267526 0 -0.9739521 -0.2267538 0.8992596 -0.437406 -0.002845823 -0.8995339 -0.436851 0 0 -0.4535474 0.8912321 0 -0.453547 0.8912324 1 0 0 0 -0.6425314 -0.7662594 0.6425307 0 -0.7662601 1 0 0 0 0.6425312 -0.7662596 -0.6425311 -6.01925e-7 0.7662597 -0.9739524 0 0.2267528 3.86078e-7 -0.9739524 0.2267525 0.9739523 0 0.2267534 0 0.9739522 0.2267535 -0.6425312 0 -0.7662597 0 0.6425313 0.7662596 0.6425312 0 0.7662596 0.6425313 0 0.7662596 0 1 -1.58946e-6 -0.642531 -3.56782e-7 -0.7662597 0 -0.9867655 -0.1621536 0.9739523 0 0.2267535 -0.9739525 -3.0091e-7 0.2267526 0 -0.9867655 -0.1621538 -0.6425313 0 0.7662596 0 0.9867652 -0.162156 0.6425311 0 -0.7662597 0 -0.9994859 0.03206443 0 0.9994859 -0.03206425 0 0.9867654 0.1621548 0.7171689 0 0.6968995 -0.7171691 0 -0.6968992 0.9824773 0 0.1863825 -0.9824773 0 0.1863831 -0.7171686 0 0.6968997 1 1.48827e-7 0 0.7171685 1.3137e-7 -0.6968998 1 1.48827e-7 0 0 0.9867656 -0.1621533 0 0.9867653 0.1621548 0 -0.9867655 0.1621545 0 -0.9994858 -0.03206503 0 -0.9867653 0.162155 0 0.9994859 0.03206467 0 0.9994859 -0.0320639 0 -0.9994859 0.03206449 -0.9824773 0 -0.1863827 0.9824772 0 -0.1863828 0 0.9994859 0.03206455 0 -0.9994859 -0.03206455 -0.9739521 -5.32515e-7 -0.2267541 -1 -5.46757e-7 0 0.9739523 0 -0.2267534 1 0 0 0 0.9739522 -0.2267534 0.9739522 0 -0.2267535 1 0 0 3.44353e-7 -0.9739518 -0.2267554 3.33452e-7 -1 0 -0.9739521 5.32515e-7 -0.2267541 -0.8992605 -0.4374042 -0.002845823 -0.8992614 -0.4374027 0.002847731 0 1 0 0 0.9739522 -0.2267536 1.95066e-7 -1 0 7.74261e-7 0 1 0 0.6425312 0.7662596 0 0.9739522 0.2267535 0 -0.9739522 0.2267535 1.72577e-7 0.6425312 -0.7662596 0 1 0 2.12928e-7 0 1 3.3811e-7 0.09465974 0.9955097 -0.9333916 0.3588594 0 0 1 0 0 1 0 0 1 -1.41482e-7 0 1 0 -4.40666e-7 0.09465968 0.9955097 0.933392 0.3588586 0 5.46249e-7 0.0946604 -0.9955096 0 0.09466046 -0.9955096 0.8992602 -0.4374051 0.002845823 0 0.9739523 0.2267534 0 -0.9994859 -0.03206413 0 0.9994859 -0.03206473 0 -0.9994859 -0.03206461 -0.9824773 0 0.1863827 0.9824773 0 0.1863828 0 0.9994859 -0.03206461 -0.9739521 0 0.2267541 0.9739522 0 0.2267534 0 0.9739522 0.2267534 0.9739523 0 0.2267534 4.04056e-7 -0.973952 0.2267547 -0.9739521 0 0.2267542 0 0.9739522 -0.2267535 0 -0.9739527 -0.2267518 -0.9739524 0 -0.2267528 3.34943e-7 -0.9739527 -0.2267517 0.9739522 0 -0.2267534 0 0.9739523 -0.2267534 0.9739523 0 -0.2267533 -0.9739524 -5.65051e-7 -0.2267529 0 0.9994859 0.03206413 0.9824773 0 -0.1863828 -0.9824771 0 -0.1863834 0 -0.9994859 0.03206473 0 0.9994859 0.03206408 0 -0.9994859 0.03206479 0 0.9739522 -0.2267534 0 -0.9739526 -0.2267518 0 0.9739522 0.2267535 0 -0.9739516 0.2267562 -6.7622e-7 0.09466046 -0.9955096 1.89354e-7 0.09465968 0.9955098 0 1 0 0 1 1.41482e-7 1.58946e-7 -1 0 0 -0.6425307 -0.76626 0 -0.9739523 0.2267531 0 0.6425311 0.7662597 0 -0.9739524 -0.2267531 0 0.9739523 -0.2267533 -1.58946e-7 1 -2.64909e-7 0 -0.6425313 0.7662595 0 0.9739522 0.2267535 0 0.6425311 -0.7662597 0 -0.9739525 -0.2267524 0 0.9739524 -0.2267532 0 -0.453547 -0.8912324 5.46249e-7 0.09466046 -0.9955096 0 1 -1.78695e-7 3.3811e-7 0.09466046 0.9955096 -4.42661e-7 0.6425313 -0.7662594 0 1 0 0 0.9739522 0.2267537 3.11286e-7 -0.6425318 0.7662591 0 0.9739522 -0.2267535 0 1 -1.76852e-7 0 -0.4535474 -0.8912321 0.8995348 -0.4368494 0 0 -1 -2.64909e-7 0 0.6425313 0.7662596 0 -0.9739522 0.2267534 0 -0.9739523 -0.2267529 0 -0.9739519 0.2267547 0 -0.9739521 0.2267538 0 -0.9739525 -0.2267526 0.8992632 -0.4373987 -0.002847731 -0.8995341 -0.4368506 0 0 -0.4535479 0.8912319 0 -0.453548 0.891232</float_array>
          <technique_common>
            <accessor source="#Cube_002-mesh-normals-array" count="322" stride="3">
              <param name="X" type="float"/>
              <param name="Y" type="float"/>
              <param name="Z" type="float"/>
            </accessor>
          </technique_common>
        </source>
        <source id="Cube_002-mesh-map-0">
          <float_array id="Cube_002-mesh-map-0-array" count="2856">0.8578073 0.4488816 0.8780346 0.3877914 0.8780346 0.4488816 0.0395013 0.9169948 0.07225561 0.8117247 0.07225561 0.9169948 0.906378 0.7191848 0.9391323 0.6580951 0.9391323 0.7191848 0.09885448 0.9169886 0.1316087 0.8117244 0.1316087 0.9169886 0.4076337 0.3436116 0.5156002 0.2825213 0.5156002 0.3436111 0.5155949 0.8127029 0.4076334 0.8737931 0.4076334 0.8127029 0.2846141 0.8117245 0.2643865 0.9169887 0.2643865 0.8117245 0.5767084 0.3436116 0.5967621 0.3016366 0.5967621 0.3531692 0.9657308 0.7191848 0.9859584 0.6580951 0.9859584 0.7191848 0.6846749 0.5268818 0.5967621 0.5077666 0.6878368 0.5077666 0.2175604 0.9169948 0.237788 0.8117247 0.237788 0.9169948 0.692029 0.06109023 0.7111575 0.01911532 0.7111575 0.07064789 0.924861 0.4488816 0.9046334 0.3877914 0.924861 0.3877914 0.557469 2.44604e-7 0.6453518 0.0191155 0.5542809 0.0191155 0.5117397 0.6968628 0.4219139 0.7256705 0.4147738 0.6968628 0.147682 0.4538862 0.1772183 0.5020653 0.147682 0.5087722 0.7750443 0.6968628 0.6846859 0.7256705 0.6780725 0.6968628 0.2333531 0.3441141 0.203817 0.295935 0.2333531 0.2892282 0.7999956 0.2443609 0.7111575 0.2252455 0.8022324 0.2252455 0.1101724 0.724692 0.09107095 0.7666669 0.09107095 0.7151343 0.002210676 0.5414213 0.09107095 0.5605367 0 0.5605368 0.6654307 0.1832705 0.6453518 0.2252454 0.6453518 0.1737128 0.557469 0.2443607 0.6453518 0.2252454 0.6654307 0.2443607 0.06263548 0.2565789 0.02319639 0.2443609 0.07423371 0.2443609 0.6846749 0.2825213 0.5967621 0.3016366 0.5767084 0.2825213 0.848398 0.0357573 0.8448004 0.01972854 0.8679968 0.01972854 0.6306008 0.7256705 0.540759 0.6968628 0.6377308 0.6968628 0 0.2246323 0.02319639 0.2443609 0 0.2565789 0.8054768 0.4553675 0.7151134 0.4265598 0.8120794 0.4265598 0.2967395 0.0357573 0.3003368 0.01972854 0.3163067 0.0357573 0.002210676 0.7857822 0.09107095 0.7666669 0.1101724 0.7857822 0.2771407 0 0.3003368 0.01972854 0.2771407 0.01972854 0.9046334 0.3877914 0.924861 0.2825211 0.924861 0.3877914 0.0195989 0.0357573 0.02319639 0.01972854 0.03916615 0.0357573 0.7999956 0 0.7111575 0.01911532 0.692029 0 0.8679968 0.2443609 0.8448004 0.2246323 0.8679968 0.2246323 0.3314401 0.8117247 0.3112125 0.9169884 0.3112125 0.8117247 0.2967395 0.0357573 0.3107035 0.06456506 0.2898628 0.06456506 0.2713357 0.6025114 0.3792971 0.5414216 0.3792971 0.6025118 0.250542 0.0197286 0.2273456 0 0.250542 0 0.2447372 0.724692 0.1367707 0.7857822 0.1367707 0.724692 0.2771407 0.2246323 0.3003368 0.2443609 0.2771407 0.2565789 0.1582076 0.9169887 0.1909619 0.8117245 0.1909619 0.9169887 0.2309431 0.2086036 0.2169791 0.1797959 0.2378197 0.1797959 0.8578073 0.3877914 0.8780346 0.2825211 0.8780346 0.3877914 0.0195989 0.2086035 0.02319639 0.2246323 0 0.2246323 0.8797791 0.6778231 0.8473792 0.693852 0.8452801 0.6778231 0.8945953 0.2246323 0.9270181 0.2086036 0.9290924 0.2246323 0.8764807 0.8666982 0.8466426 0.8378905 0.8776379 0.8378905 0.9270181 0.2086036 0.8967524 0.1797959 0.9277459 0.1797959 0.8945953 0.0197286 0.9270181 0.0357573 0.8979183 0.0357573 0.8797791 0.6778231 0.8452801 0.6580946 0.8797791 0.6580946 0.8797791 0.8827269 0.8473792 0.8666982 0.8764807 0.8666982 0.9290924 0.0197286 0.8945953 0 0.9290924 0 0.9859675 0.4544797 0.9514594 0.5042579 0.9514594 0.4544797 0.5156002 0.3549235 0.5501095 0.3051452 0.5501095 0.3549235 0.9290924 0.2443609 0.8945953 0.2246323 0.9290924 0.2246323 0.8797791 0.9024555 0.8452801 0.8827269 0.8797791 0.8827269 0.2309432 0.03575736 0.2273456 0.0197286 0.250542 0.0197286 0.2309431 0.2086036 0.2273456 0.2246323 0.2113758 0.2086036 0.3397757 0.2565789 0.3003368 0.2443609 0.3513743 0.2443609 0.8679968 0.01972854 0.8448004 0 0.8679968 0 0.2967395 0.2086035 0.3003368 0.2246323 0.2771407 0.2246323 0.4076334 0.9608256 0.4076334 0.9223595 0.4076334 0.9721378 0 0 0.02319639 0.01972854 0 0.01972854 0.848398 0.2086035 0.834434 0.1797958 0.8552746 0.1797958 0.8120999 0.7629249 0.8120999 0.801391 0.8120999 0.7516127 0.848398 0.2086035 0.8448004 0.2246323 0.8288307 0.2086035 0.0195989 0.0357573 0.03356289 0.06456506 0.01272225 0.06456506 0.250542 0.2246323 0.2273456 0.2443609 0.2273456 0.2246323 0.01272225 0.1797958 0.02795964 0.1509882 0.03356289 0.1797958 0.005845665 0.09337276 0.02795964 0.1509882 0.005845665 0.1509882 0.8552746 0.06456506 0.8400373 0.09337276 0.834434 0.06456506 0.8621512 0.1509882 0.8400373 0.09337276 0.8621512 0.09337276 0.9284737 0.09337276 0.8967524 0.06456506 0.9277459 0.06456506 0.9284737 0.1509882 0.8955864 0.09337276 0.9284737 0.09337276 0.8787953 0.7514674 0.8466426 0.7226597 0.8776379 0.7226597 0.8787953 0.8090828 0.845906 0.7514674 0.8787953 0.7514674 0.2378197 0.06456506 0.2225824 0.09337276 0.2169791 0.06456506 0.2446963 0.1509882 0.2225824 0.09337276 0.2446963 0.09337276 0.2898628 0.1797958 0.3050999 0.1509882 0.3107035 0.1797958 0.2829861 0.09337276 0.3050999 0.1509882 0.2829861 0.1509882 0.8120794 0.3113289 0.7157915 0.3401365 0.7151136 0.3113288 0.818682 0.3977521 0.7157915 0.3401365 0.818682 0.3401366 0.6377308 0.581632 0.5419643 0.6104397 0.540759 0.581632 0.6448608 0.6680551 0.5419643 0.6104397 0.6448608 0.6104397 0.3219625 0.3407607 0.3514987 0.2892282 0.3514987 0.3441141 0.3219625 0.3990002 0.3158112 0.352889 0.3219625 0.3407607 0.7743557 0.6104397 0.6780725 0.581632 0.7750443 0.581632 0.7743557 0.6680551 0.6714592 0.6104397 0.7743557 0.6104397 0.05907285 0.4572396 0.02953642 0.5087722 0.02953642 0.4538862 0.1181456 0.4572396 0.05907285 0.5154792 0.05907285 0.4572396 0.510524 0.6104397 0.4147738 0.581632 0.5117397 0.581632 0.510524 0.6680551 0.4076336 0.6104397 0.510524 0.6104397 0.3580388 0.8405322 0.3744456 0.8163071 0.3679972 0.8428236 0.3580388 0.8981476 0.3744456 0.9223726 0.3650444 0.9269555 0.3219625 0.4572396 0.3158112 0.4912225 0.3158112 0.4451113 0.3514987 0.4538862 0.3219625 0.3990002 0.3514987 0.3990002 0.5156002 0.4047014 0.5156002 0.4544796 0.5156002 0.4657916 0.4342321 0.8997355 0.4342321 0.9495135 0.4342321 0.9608257 0.4024112 0.2565789 0.4534487 0.2443609 0.4650468 0.2443609 0.5156002 0.4544796 0.5501095 0.4047014 0.5501095 0.4544796 0.9514594 0.3549234 0.9859675 0.4047016 0.9514594 0.4047016 0.2447372 0.6025116 0.1367707 0.6636018 0.1367707 0.6025116 0.3792971 0.7246918 0.2713357 0.6636016 0.3792971 0.6636016 0.125271 0.2565789 0.1763083 0.2443609 0.1879065 0.2565789 0.6654307 0.1221802 0.6453518 0.07064813 0.6654307 0.06109046 0.1101724 0.6636018 0.09107095 0.6120692 0.1101724 0.6025116 0.203817 0.4505327 0.2333531 0.3990002 0.2333531 0.4538862 0.1772184 0.3474676 0.147682 0.3990002 0.147682 0.3441141 0.9046334 0.5710622 0.924861 0.5099719 0.924861 0.5710622 0.692029 0.1221805 0.7111575 0.173713 0.692029 0.1832706 0.9657308 0.8413653 0.9859584 0.7802751 0.9859584 0.8413653 0.5767084 0.4047014 0.5967621 0.4562339 0.5767084 0.4657916 0.7410337 0.4813097 0.7410337 0.4813097 0.7410337 0.4813097 0.4076337 0.4657916 0.5156002 0.4047014 0.5156002 0.4657916 0.906378 0.8413653 0.9391323 0.7802751 0.9391323 0.8413653 0.8452803 0.5710622 0.8780346 0.5099719 0.8780346 0.5710622 0.5421935 0.812703 0.650155 0.8737931 0.5421935 0.8737931 0.8452803 0.5099719 0.8452803 0.4488816 0.8578073 0.4488816 0.8578073 0.3877914 0.8452803 0.2825211 0.8578073 0.2825211 0.5276823 0.2443609 0.4650468 0.2565789 0.4650468 0.2443609 0.01290267 0.9500579 0 0.9913148 0 0.9476308 0.9642 0.575817 0.9514594 0.5314004 0.9642 0.5301999 0.2628898 0.3990002 0.2690407 0.4451113 0.2628898 0.4572396 0.3219625 0.2825211 0.2690407 0.3067779 0.2628898 0.2825211 0.2628898 0.5154792 0.3158112 0.4912225 0.3219625 0.5154792 0.2628898 0.3407607 0.2690407 0.3067779 0.2690407 0.352889 0.9556908 0.04368406 1 0 1 0.04368406 1 0.1310521 0.9556908 0.08736813 1 0.08736813 0.01290267 0.9039467 0 0.8602626 0.01290267 0.8578355 0.7916752 0.9303861 0.8044241 0.8859695 0.8044241 0.9291856 0.8186818 0.5735317 0.8057765 0.5298479 0.8186818 0.5274205 0.8186818 0.6196429 0.8057765 0.6608997 0.8057765 0.6172159 0.6931491 0.9711921 0.6767539 0.9954171 0.6831977 0.9689006 0.2333531 0.4538862 0.2628898 0.3990002 0.2628898 0.4572396 0.2967395 0.2086035 0.3107035 0.1797958 0.3163067 0.2086035 0.0195989 0.2086035 0.03356289 0.1797958 0.03916615 0.2086035 0.8552746 0.1797958 0.8400373 0.1509882 0.8621512 0.1509882 0.9277459 0.1797959 0.8955864 0.1509882 0.9284737 0.1509882 0.8776379 0.8378905 0.845906 0.8090828 0.8787953 0.8090828 0.2378197 0.1797959 0.2225823 0.1509882 0.2446963 0.1509882 0.8120794 0.4265598 0.7157915 0.3977521 0.818682 0.3977521 0.6377308 0.6968628 0.5419643 0.6680551 0.6448608 0.6680551 0.2628898 0.3407607 0.2333531 0.2892282 0.2628898 0.2825211 0.7743557 0.6680551 0.6780725 0.6968628 0.6714592 0.6680551 0.1181456 0.4572396 0.147682 0.5087722 0.1181456 0.5154792 0.510524 0.6680551 0.4147738 0.6968628 0.4076336 0.6680551 0.3810353 0.4505327 0.3514987 0.3990002 0.3810353 0.3990002 0 0.3474676 0.02953642 0.3990002 0 0.3990002 0.5117397 0.581632 0.421914 0.5528243 0.5129554 0.5528243 0.02953642 0.4538862 0 0.5020653 0 0.4505327 0.7750443 0.581632 0.6846859 0.5528243 0.775733 0.5528243 0.3514987 0.3441141 0.3810353 0.295935 0.3810353 0.3474676 0.6306008 0.5528243 0.540759 0.581632 0.5395539 0.5528243 0.8054768 0.2825211 0.7151136 0.3113288 0.7144355 0.2825211 0.2309432 0.03575736 0.2169791 0.06456506 0.2113758 0.0357573 0.8776379 0.7226597 0.8473792 0.693852 0.8764807 0.693852 0.9277459 0.06456506 0.8979183 0.0357573 0.9270181 0.0357573 0.848398 0.0357573 0.834434 0.06456506 0.8288307 0.0357573 0.01272225 0.06456506 0.02795964 0.09337276 0.005845665 0.09337276 0.2898628 0.06456506 0.3050999 0.09337276 0.2829861 0.09337276 0.3514987 0.3990002 0.3810353 0.3474676 0.3810353 0.3990002 0 0.295935 0.02953642 0.3441141 0 0.3474676 0.2628898 0.3990002 0.2333531 0.3441141 0.2628898 0.3407607 0.147682 0.2892282 0.1181456 0.3407607 0.1181456 0.2825211 0.8186818 0.5735317 0.8057765 0.6172159 0.8057765 0.5735317 0.01290267 0.8578355 0 0.8165786 0.01290267 0.8117245 0.9556908 0.08736813 1 0.04368406 1 0.08736813 0.2628898 0.3990002 0.2690407 0.352889 0.2690407 0.3990002 0.4024112 0.2565789 0.4650468 0.2565789 0.4024112 0.2565789 0.8578073 0.4488816 0.8452803 0.3877914 0.8578073 0.3877914 0.650155 0.7516128 0.5421935 0.812703 0.5421935 0.7516128 0.906378 0.9024556 0.9391323 0.8413653 0.9391323 0.9024556 0.5156002 0.5268818 0.4076337 0.4657916 0.5156002 0.4657916 0.5767084 0.4657916 0.5967621 0.5077666 0.5767084 0.5268818 0.9657308 0.9024556 0.9859584 0.8413653 0.9859584 0.9024556 0.1772184 0.295935 0.147682 0.3441141 0.147682 0.2892282 0.1101724 0.6025116 0.09107095 0.5605367 0.1101724 0.5414213 0.2713357 0.785782 0.3792971 0.7246918 0.3792971 0.785782 0.1367707 0.5414213 0.2447372 0.6025116 0.1367707 0.6025116 0.9859675 0.3051453 0.9514594 0.3549234 0.9514594 0.3051453 0.5156002 0.504258 0.5501095 0.4544796 0.5501095 0.504258 0.9859675 0.3436114 0.9859675 0.3051453 0.9859675 0.2825211 0.9907985 0.5912904 0.9907985 0.5528243 0.9907985 0.5302002 0.02953642 0.2892282 0.05907285 0.3407607 0.02953642 0.3441141 0.1181456 0.2825211 0.05907285 0.3407607 0.05907285 0.2825211 0.3219625 0.3407607 0.3158112 0.3067779 0.3219625 0.2825211 0.3219625 0.3990002 0.3514987 0.3441141 0.3514987 0.3990002 0.7410337 0.5072518 0.7410337 0.5072518 0.7410337 0.5072518 0.125271 0.2565789 0.07423371 0.2443609 0.125271 0.2443609 0.6654307 0.1221802 0.6453518 0.1737128 0.6453518 0.1221802 0.2333531 0.3990002 0.203817 0.3474676 0.2333531 0.3441141 0.9046334 0.5099719 0.924861 0.4488816 0.924861 0.5099719 0.692029 0.1221805 0.7111575 0.07064789 0.7111575 0.1221805 0.8780346 0.5099719 0.8578073 0.4488816 0.8780346 0.4488816 0.02953642 0.3990002 0 0.4505327 0 0.3990002 0.3810353 0.5020653 0.3514987 0.4538862 0.3810353 0.4505327 0.7557154 0.9396549 0.7650769 0.9901753 0.7557154 0.994541 0.2333531 0.5087722 0.2628898 0.4572396 0.2628898 0.5154792 0.8186818 0.5274205 0.8057765 0.4861636 0.8186818 0.4813097 0.9556908 0.1747363 1 0.1310521 1 0.1747363 0.2628898 0.4572396 0.2690407 0.4912225 0.2628898 0.5154792 0.01290267 0.9039467 0 0.9476308 0 0.9039467 0.8452803 0.6321524 0.8780346 0.5710622 0.8780346 0.6321524 0.692029 0.1832706 0.7111575 0.2252455 0.692029 0.2443609 0.924861 0.6321524 0.9046334 0.5710622 0.924861 0.5710622 0.203817 0.5020653 0.2333531 0.4538862 0.2333531 0.5087722 0.6654307 0.06109046 0.6453518 0.0191155 0.6654307 2.44604e-7 0.1879065 0.2565789 0.2273456 0.2443609 0.250542 0.2565789 0.7144353 0.5072518 0.7144353 0.5072518 0.7144353 0.5072518 0.3514987 0.5087722 0.3219625 0.4572396 0.3514987 0.4538862 0.3219625 0.3990002 0.3158112 0.4451113 0.3158112 0.3990002 0.7557154 0.9396549 0.7650769 0.889135 0.7650769 0.9396549 0.6931491 0.9711921 0.6831977 0.9158682 0.6931491 0.9135767 0.7144353 0.4813097 0.7144353 0.4813097 0.7144353 0.4813097 0.4024112 0.2565789 0.3513743 0.2443609 0.4024112 0.2443609 0.5501095 0.4047014 0.5156002 0.3549235 0.5501095 0.3549235 0.9859675 0.4047016 0.9514594 0.4544797 0.9514594 0.4047016 0.2447372 0.6636018 0.1367707 0.724692 0.1367707 0.6636018 0.2713357 0.6636016 0.3792971 0.6025118 0.3792971 0.6636016 0.1101724 0.6636018 0.09107095 0.7151343 0.09107095 0.6636018 0.147682 0.3990002 0.1772184 0.4505327 0.147682 0.4538862 0.9657308 0.7802751 0.9859584 0.7191848 0.9859584 0.7802751 0.5767084 0.4047014 0.5967621 0.3531692 0.5967621 0.4047014 0.5155949 0.7516127 0.4076334 0.8127029 0.4076334 0.7516127 0.5156002 0.4047014 0.4076337 0.3436116 0.5156002 0.3436111 0.906378 0.7802751 0.9391323 0.7191848 0.9391323 0.7802751 0.7583146 0.7516127 0.7039405 0.8052198 0.7039405 0.7516127 0.6767535 0.7546995 0.7039405 0.8052198 0.6767535 0.8052198 0.7855015 0.7546995 0.7583146 0.8052198 0.7583146 0.7516127 0.7583146 0.8052198 0.7855015 0.85574 0.7583146 0.8588268 0.7583146 0.8052198 0.7039405 0.8588268 0.7039405 0.8052198 0.7039405 0.8052198 0.6767535 0.85574 0.6767535 0.8052198 0.6931491 0.9135767 0.6767539 0.8893516 0.6861485 0.8847692 0.3580388 0.8405322 0.3679972 0.8958562 0.3580388 0.8981476 0.7291165 0.9396549 0.719748 0.889135 0.7291165 0.8847692 0.7291165 0.9396549 0.719748 0.9901753 0.719748 0.9396549 0.8578073 0.4488816 0.8578073 0.3877914 0.8780346 0.3877914 0.0395013 0.9169948 0.0395013 0.8117247 0.07225561 0.8117247 0.906378 0.7191848 0.906378 0.6580951 0.9391323 0.6580951 0.09885448 0.9169886 0.09885448 0.8117244 0.1316087 0.8117244 0.4076337 0.3436116 0.4076337 0.2825213 0.5156002 0.2825213 0.5155949 0.8127029 0.5155951 0.8737931 0.4076334 0.8737931 0.2846141 0.8117245 0.2846141 0.9169887 0.2643865 0.9169887 0.5767084 0.3436116 0.5767084 0.2825213 0.5967621 0.3016366 0.9657308 0.7191848 0.9657308 0.6580951 0.9859584 0.6580951 0.6846749 0.5268818 0.5767084 0.5268818 0.5967621 0.5077666 0.2175604 0.9169948 0.2175604 0.8117247 0.237788 0.8117247 0.692029 0.06109023 0.692029 0 0.7111575 0.01911532 0.924861 0.4488816 0.9046334 0.4488816 0.9046334 0.3877914 0.557469 2.44604e-7 0.6654307 2.44604e-7 0.6453518 0.0191155 0.5117397 0.6968628 0.5129554 0.7256705 0.4219139 0.7256705 0.147682 0.4538862 0.1772184 0.4505327 0.1772183 0.5020653 0.7750443 0.6968628 0.7757325 0.7256705 0.6846859 0.7256705 0.2333531 0.3441141 0.203817 0.3474676 0.203817 0.295935 0.7999956 0.2443609 0.692029 0.2443609 0.7111575 0.2252455 0.1101724 0.724692 0.1101724 0.7857822 0.09107095 0.7666669 0.002210676 0.5414213 0.1101724 0.5414213 0.09107095 0.5605367 0.6654307 0.1832705 0.6654307 0.2443607 0.6453518 0.2252454 0.557469 0.2443607 0.5542809 0.2252454 0.6453518 0.2252454 0.06263548 0.2565789 0 0.2565789 0.02319639 0.2443609 0.6846749 0.2825213 0.6878368 0.3016366 0.5967621 0.3016366 0.848398 0.0357573 0.8288307 0.0357573 0.8448004 0.01972854 0.6306008 0.7256705 0.5395539 0.7256705 0.540759 0.6968628 0 0.2246323 0.02319639 0.2246323 0.02319639 0.2443609 0.8054768 0.4553675 0.7144355 0.4553675 0.7151134 0.4265598 0.2967395 0.0357573 0.2771407 0.01972854 0.3003368 0.01972854 0.002210676 0.7857822 0 0.7666669 0.09107095 0.7666669 0.2771407 0 0.3003368 0 0.3003368 0.01972854 0.9046334 0.3877914 0.9046334 0.2825211 0.924861 0.2825211 0.0195989 0.0357573 0 0.01972854 0.02319639 0.01972854 0.7999956 0 0.8022324 0.01911532 0.7111575 0.01911532 0.8679968 0.2443609 0.8448004 0.2443609 0.8448004 0.2246323 0.3314401 0.8117247 0.3314401 0.9169884 0.3112125 0.9169884 0.2967395 0.0357573 0.3163067 0.0357573 0.3107035 0.06456506 0.2713357 0.6025114 0.2713357 0.5414216 0.3792971 0.5414216 0.250542 0.0197286 0.2273456 0.0197286 0.2273456 0 0.2447372 0.724692 0.2447372 0.7857822 0.1367707 0.7857822 0.2771407 0.2246323 0.3003368 0.2246323 0.3003368 0.2443609 0.1582076 0.9169887 0.1582076 0.8117245 0.1909619 0.8117245 0.2309431 0.2086036 0.2113758 0.2086036 0.2169791 0.1797959 0.8578073 0.3877914 0.8578073 0.2825211 0.8780346 0.2825211 0.0195989 0.2086035 0.03916615 0.2086035 0.02319639 0.2246323 0.8797791 0.6778231 0.8764807 0.693852 0.8473792 0.693852 0.8945953 0.2246323 0.8979183 0.2086036 0.9270181 0.2086036 0.8764807 0.8666982 0.8473792 0.8666982 0.8466426 0.8378905 0.9270181 0.2086036 0.8979183 0.2086036 0.8967524 0.1797959 0.8945953 0.0197286 0.9290924 0.0197286 0.9270181 0.0357573 0.8797791 0.6778231 0.8452801 0.6778231 0.8452801 0.6580946 0.8797791 0.8827269 0.8452801 0.8827269 0.8473792 0.8666982 0.9290924 0.0197286 0.8945953 0.0197286 0.8945953 0 0.9859675 0.4544797 0.9859675 0.5042579 0.9514594 0.5042579 0.5156002 0.3549235 0.5156002 0.3051452 0.5501095 0.3051452 0.9290924 0.2443609 0.8945953 0.2443609 0.8945953 0.2246323 0.8797791 0.9024555 0.8452801 0.9024554 0.8452801 0.8827269 0.2309432 0.03575736 0.2113758 0.0357573 0.2273456 0.0197286 0.2309431 0.2086036 0.250542 0.2246323 0.2273456 0.2246323 0.3397757 0.2565789 0.2771407 0.2565789 0.3003368 0.2443609 0.8679968 0.01972854 0.8448004 0.01972854 0.8448004 0 0.2967395 0.2086035 0.3163067 0.2086035 0.3003368 0.2246323 0.4076334 0.9608256 0.4076334 0.8997355 0.4076334 0.9223595 0 0 0.02319639 0 0.02319639 0.01972854 0.848398 0.2086035 0.8288307 0.2086035 0.834434 0.1797958 0.8120999 0.7629249 0.8120999 0.8240151 0.8120999 0.801391 0.848398 0.2086035 0.8679968 0.2246323 0.8448004 0.2246323 0.0195989 0.0357573 0.03916615 0.0357573 0.03356289 0.06456506 0.250542 0.2246323 0.250542 0.2565789 0.2273456 0.2443609 0.01272225 0.1797958 0.005845665 0.1509882 0.02795964 0.1509882 0.005845665 0.09337276 0.02795964 0.09337276 0.02795964 0.1509882 0.8552746 0.06456506 0.8621512 0.09337276 0.8400373 0.09337276 0.8621512 0.1509882 0.8400373 0.1509882 0.8400373 0.09337276 0.9284737 0.09337276 0.8955864 0.09337276 0.8967524 0.06456506 0.9284737 0.1509882 0.8955864 0.1509882 0.8955864 0.09337276 0.8787953 0.7514674 0.845906 0.7514674 0.8466426 0.7226597 0.8787953 0.8090828 0.845906 0.8090828 0.845906 0.7514674 0.2378197 0.06456506 0.2446963 0.09337276 0.2225824 0.09337276 0.2446963 0.1509882 0.2225823 0.1509882 0.2225824 0.09337276 0.2898628 0.1797958 0.2829861 0.1509882 0.3050999 0.1509882 0.2829861 0.09337276 0.3050999 0.09337276 0.3050999 0.1509882 0.8120794 0.3113289 0.818682 0.3401366 0.7157915 0.3401365 0.818682 0.3977521 0.7157915 0.3977521 0.7157915 0.3401365 0.6377308 0.581632 0.6448608 0.6104397 0.5419643 0.6104397 0.6448608 0.6680551 0.5419643 0.6680551 0.5419643 0.6104397 0.3219625 0.3407607 0.3219625 0.2825211 0.3514987 0.2892282 0.3219625 0.3990002 0.3158112 0.3990002 0.3158112 0.352889 0.7743557 0.6104397 0.6714592 0.6104397 0.6780725 0.581632 0.7743557 0.6680551 0.6714592 0.6680551 0.6714592 0.6104397 0.05907285 0.4572396 0.05907285 0.5154792 0.02953642 0.5087722 0.1181456 0.4572396 0.1181456 0.5154792 0.05907285 0.5154792 0.510524 0.6104397 0.4076336 0.6104397 0.4147738 0.581632 0.510524 0.6680551 0.4076336 0.6680551 0.4076336 0.6104397 0.3580388 0.8405322 0.3650444 0.8117247 0.3744456 0.8163071 0.3580388 0.8981476 0.3679972 0.8958562 0.3744456 0.9223726 0.3219625 0.4572396 0.3219625 0.5154792 0.3158112 0.4912225 0.3514987 0.4538862 0.3219625 0.4572396 0.3219625 0.3990002 0.5156002 0.4047014 0.5156002 0.4047014 0.5156002 0.4544796 0.4342321 0.8997355 0.4342321 0.8997355 0.4342321 0.9495135 0.4024112 0.2565789 0.4024112 0.2443609 0.4534487 0.2443609 0.5156002 0.4544796 0.5156002 0.4047014 0.5501095 0.4047014 0.9514594 0.3549234 0.9859675 0.3549234 0.9859675 0.4047016 0.2447372 0.6025116 0.2447372 0.6636018 0.1367707 0.6636018 0.3792971 0.7246918 0.2713357 0.7246918 0.2713357 0.6636016 0.125271 0.2565789 0.125271 0.2443609 0.1763083 0.2443609 0.6654307 0.1221802 0.6453518 0.1221802 0.6453518 0.07064813 0.1101724 0.6636018 0.09107095 0.6636018 0.09107095 0.6120692 0.203817 0.4505327 0.203817 0.3990002 0.2333531 0.3990002 0.1772184 0.3474676 0.1772184 0.3990002 0.147682 0.3990002 0.9046334 0.5710622 0.9046334 0.5099719 0.924861 0.5099719 0.692029 0.1221805 0.7111575 0.1221805 0.7111575 0.173713 0.9657308 0.8413653 0.9657308 0.7802751 0.9859584 0.7802751 0.5767084 0.4047014 0.5967621 0.4047014 0.5967621 0.4562339 0.7410337 0.4813097 0.7410337 0.4813097 0.7410337 0.4813097 0.4076337 0.4657916 0.4076337 0.4047014 0.5156002 0.4047014 0.906378 0.8413653 0.906378 0.7802751 0.9391323 0.7802751 0.8452803 0.5710622 0.8452803 0.5099719 0.8780346 0.5099719 0.5421935 0.812703 0.650155 0.812703 0.650155 0.8737931 0.8452803 0.5099719 0.8452803 0.5099719 0.8452803 0.4488816 0.8578073 0.3877914 0.8452803 0.3877914 0.8452803 0.2825211 0.5276823 0.2443609 0.5276823 0.2565789 0.4650468 0.2565789 0.01290267 0.9500579 0.01290267 0.996169 0 0.9913148 0.9642 0.575817 0.9514594 0.5746165 0.9514594 0.5314004 0.2628898 0.3990002 0.2690407 0.3990002 0.2690407 0.4451113 0.3219625 0.2825211 0.3158112 0.3067779 0.2690407 0.3067779 0.2628898 0.5154792 0.2690407 0.4912225 0.3158112 0.4912225 0.2628898 0.3407607 0.2628898 0.2825211 0.2690407 0.3067779 0.9556908 0.04368406 0.9556908 0 1 0 1 0.1310521 0.9556908 0.1310521 0.9556908 0.08736813 0.01290267 0.9039467 0 0.9039467 0 0.8602626 0.7916752 0.9303861 0.7916752 0.884769 0.8044241 0.8859695 0.8186818 0.5735317 0.8057765 0.5735317 0.8057765 0.5298479 0.8186818 0.6196429 0.8186818 0.6657541 0.8057765 0.6608997 0.6931491 0.9711921 0.6861485 1 0.6767539 0.9954171 0.2333531 0.4538862 0.2333531 0.3990002 0.2628898 0.3990002 0.2967395 0.2086035 0.2898628 0.1797958 0.3107035 0.1797958 0.0195989 0.2086035 0.01272225 0.1797958 0.03356289 0.1797958 0.8552746 0.1797958 0.834434 0.1797958 0.8400373 0.1509882 0.9277459 0.1797959 0.8967524 0.1797959 0.8955864 0.1509882 0.8776379 0.8378905 0.8466426 0.8378905 0.845906 0.8090828 0.2378197 0.1797959 0.2169791 0.1797959 0.2225823 0.1509882 0.8120794 0.4265598 0.7151134 0.4265598 0.7157915 0.3977521 0.6377308 0.6968628 0.540759 0.6968628 0.5419643 0.6680551 0.2628898 0.3407607 0.2333531 0.3441141 0.2333531 0.2892282 0.7743557 0.6680551 0.7750443 0.6968628 0.6780725 0.6968628 0.1181456 0.4572396 0.147682 0.4538862 0.147682 0.5087722 0.510524 0.6680551 0.5117397 0.6968628 0.4147738 0.6968628 0.3810353 0.4505327 0.3514987 0.4538862 0.3514987 0.3990002 0 0.3474676 0.02953642 0.3441141 0.02953642 0.3990002 0.5117397 0.581632 0.4147738 0.581632 0.421914 0.5528243 0.02953642 0.4538862 0.02953642 0.5087722 0 0.5020653 0.7750443 0.581632 0.6780725 0.581632 0.6846859 0.5528243 0.3514987 0.3441141 0.3514987 0.2892282 0.3810353 0.295935 0.6306008 0.5528243 0.6377308 0.581632 0.540759 0.581632 0.8054768 0.2825211 0.8120794 0.3113289 0.7151136 0.3113288 0.2309432 0.03575736 0.2378197 0.06456506 0.2169791 0.06456506 0.8776379 0.7226597 0.8466426 0.7226597 0.8473792 0.693852 0.9277459 0.06456506 0.8967524 0.06456506 0.8979183 0.0357573 0.848398 0.0357573 0.8552746 0.06456506 0.834434 0.06456506 0.01272225 0.06456506 0.03356289 0.06456506 0.02795964 0.09337276 0.2898628 0.06456506 0.3107035 0.06456506 0.3050999 0.09337276 0.3514987 0.3990002 0.3514987 0.3441141 0.3810353 0.3474676 0 0.295935 0.02953642 0.2892282 0.02953642 0.3441141 0.2628898 0.3990002 0.2333531 0.3990002 0.2333531 0.3441141 0.147682 0.2892282 0.147682 0.3441141 0.1181456 0.3407607 0.8186818 0.5735317 0.8186818 0.6196429 0.8057765 0.6172159 0.01290267 0.8578355 0 0.8602626 0 0.8165786 0.9556908 0.08736813 0.9556908 0.04368406 1 0.04368406 0.2628898 0.3990002 0.2628898 0.3407607 0.2690407 0.352889 0.4024112 0.2565789 0.4650468 0.2443609 0.4650468 0.2565789 0.8578073 0.4488816 0.8452803 0.4488816 0.8452803 0.3877914 0.650155 0.7516128 0.650155 0.812703 0.5421935 0.812703 0.906378 0.9024556 0.906378 0.8413653 0.9391323 0.8413653 0.5156002 0.5268818 0.4076337 0.5268818 0.4076337 0.4657916 0.5767084 0.4657916 0.5967621 0.4562339 0.5967621 0.5077666 0.9657308 0.9024556 0.9657308 0.8413653 0.9859584 0.8413653 0.1772184 0.295935 0.1772184 0.3474676 0.147682 0.3441141 0.1101724 0.6025116 0.09107095 0.6120692 0.09107095 0.5605367 0.2713357 0.785782 0.2713357 0.7246918 0.3792971 0.7246918 0.1367707 0.5414213 0.2447372 0.5414213 0.2447372 0.6025116 0.9859675 0.3051453 0.9859675 0.3549234 0.9514594 0.3549234 0.5156002 0.504258 0.5156002 0.4544796 0.5501095 0.4544796 0.9859675 0.3436114 0.9859675 0.3549234 0.9859675 0.3051453 0.9907985 0.5912904 0.9907985 0.6026024 0.9907985 0.5528243 0.02953642 0.2892282 0.05907285 0.2825211 0.05907285 0.3407607 0.1181456 0.2825211 0.1181456 0.3407607 0.05907285 0.3407607 0.3219625 0.3407607 0.3158112 0.352889 0.3158112 0.3067779 0.3219625 0.3990002 0.3219625 0.3407607 0.3514987 0.3441141 0.7410337 0.5072518 0.7410337 0.5072518 0.7410337 0.5072518 0.125271 0.2565789 0.06263548 0.2565789 0.07423371 0.2443609 0.6654307 0.1221802 0.6654307 0.1832705 0.6453518 0.1737128 0.2333531 0.3990002 0.203817 0.3990002 0.203817 0.3474676 0.9046334 0.5099719 0.9046334 0.4488816 0.924861 0.4488816 0.692029 0.1221805 0.692029 0.06109023 0.7111575 0.07064789 0.8780346 0.5099719 0.8452803 0.5099719 0.8578073 0.4488816 0.02953642 0.3990002 0.02953642 0.4538862 0 0.4505327 0.3810353 0.5020653 0.3514987 0.5087722 0.3514987 0.4538862 0.7557154 0.9396549 0.7650769 0.9396549 0.7650769 0.9901753 0.2333531 0.5087722 0.2333531 0.4538862 0.2628898 0.4572396 0.8186818 0.5274205 0.8057765 0.5298479 0.8057765 0.4861636 0.9556908 0.1747363 0.9556908 0.1310521 1 0.1310521 0.2628898 0.4572396 0.2690407 0.4451113 0.2690407 0.4912225 0.01290267 0.9039467 0.01290267 0.9500579 0 0.9476308 0.8452803 0.6321524 0.8452803 0.5710622 0.8780346 0.5710622 0.692029 0.1832706 0.7111575 0.173713 0.7111575 0.2252455 0.924861 0.6321524 0.9046334 0.6321524 0.9046334 0.5710622 0.203817 0.5020653 0.203817 0.4505327 0.2333531 0.4538862 0.6654307 0.06109046 0.6453518 0.07064813 0.6453518 0.0191155 0.1879065 0.2565789 0.1763083 0.2443609 0.2273456 0.2443609 0.7144353 0.5072518 0.7144353 0.5072518 0.7144353 0.5072518 0.3514987 0.5087722 0.3219625 0.5154792 0.3219625 0.4572396 0.3219625 0.3990002 0.3219625 0.4572396 0.3158112 0.4451113 0.7557154 0.9396549 0.7557154 0.8847692 0.7650769 0.889135 0.6931491 0.9711921 0.6831977 0.9689006 0.6831977 0.9158682 0.7144353 0.4813097 0.7144353 0.4813097 0.7144353 0.4813097 0.4024112 0.2565789 0.3397757 0.2565789 0.3513743 0.2443609 0.5501095 0.4047014 0.5156002 0.4047014 0.5156002 0.3549235 0.9859675 0.4047016 0.9859675 0.4544797 0.9514594 0.4544797 0.2447372 0.6636018 0.2447372 0.724692 0.1367707 0.724692 0.2713357 0.6636016 0.2713357 0.6025114 0.3792971 0.6025118 0.1101724 0.6636018 0.1101724 0.724692 0.09107095 0.7151343 0.147682 0.3990002 0.1772184 0.3990002 0.1772184 0.4505327 0.9657308 0.7802751 0.9657308 0.7191848 0.9859584 0.7191848 0.5767084 0.4047014 0.5767084 0.3436116 0.5967621 0.3531692 0.5155949 0.7516127 0.5155949 0.8127029 0.4076334 0.8127029 0.5156002 0.4047014 0.4076337 0.4047014 0.4076337 0.3436116 0.906378 0.7802751 0.906378 0.7191848 0.9391323 0.7191848 0.7583146 0.7516127 0.7583146 0.8052198 0.7039405 0.8052198 0.6767535 0.7546995 0.7039405 0.7516127 0.7039405 0.8052198 0.7855015 0.7546995 0.7855015 0.8052198 0.7583146 0.8052198 0.7583146 0.8052198 0.7855015 0.8052198 0.7855015 0.85574 0.7583146 0.8052198 0.7583146 0.8588268 0.7039405 0.8588268 0.7039405 0.8052198 0.7039405 0.8588268 0.6767535 0.85574 0.6931491 0.9135767 0.6831977 0.9158682 0.6767539 0.8893516 0.3580388 0.8405322 0.3679972 0.8428236 0.3679972 0.8958562 0.7291165 0.9396549 0.719748 0.9396549 0.719748 0.889135 0.7291165 0.9396549 0.7291165 0.994541 0.719748 0.9901753</float_array>
          <technique_common>
            <accessor source="#Cube_002-mesh-map-0-array" count="1428" stride="2">
              <param name="S" type="float"/>
              <param name="T" type="float"/>
            </accessor>
          </technique_common>
        </source>
        <vertices id="Cube_002-mesh-vertices">
          <input semantic="POSITION" source="#Cube_002-mesh-positions"/>
        </vertices>
        <triangles material="Server-material" count="404">
          <input semantic="VERTEX" source="#Cube_002-mesh-vertices" offset="0"/>
          <input semantic="NORMAL" source="#Cube_002-mesh-normals" offset="1"/>
          <input semantic="TEXCOORD" source="#Cube_002-mesh-map-0" offset="2" set="0"/>
          <p>162 0 0 10 0 1 165 0 2 27 1 3 12 1 4 39 1 5 197 2 6 14 2 7 199 2 8 31 3 9 9 3 10 35 3 11 213 4 12 29 4 13 205 4 14 212 5 15 31 5 16 203 5 17 33 3 18 0 3 19 28 3 20 199 6 21 22 6 22 201 6 23 198 7 24 4 7 25 213 7 26 39 8 27 20 8 28 47 8 29 37 9 30 6 9 31 24 9 32 165 10 33 18 10 34 167 10 35 170 11 36 11 11 37 2 11 38 32 12 39 23 12 40 40 12 41 141 13 42 17 13 43 134 13 44 225 14 45 22 14 46 137 14 47 139 15 48 20 15 49 136 15 50 193 16 51 18 16 52 135 16 53 35 17 54 17 17 55 43 17 56 214 18 57 16 18 58 216 18 59 36 19 60 19 19 61 44 19 62 172 20 63 21 20 64 174 20 65 37 21 66 21 21 67 13 21 68 176 22 69 51 22 70 180 22 71 34 23 72 22 23 73 14 23 74 44 24 75 60 24 76 36 24 77 18 25 78 138 25 79 135 25 80 39 26 81 51 26 82 27 26 83 22 27 84 140 27 85 137 27 86 41 28 87 57 28 88 65 28 89 33 29 90 16 29 91 8 29 92 28 30 93 57 30 94 33 30 95 11 31 96 25 31 97 2 31 98 45 32 99 61 32 100 69 32 101 38 33 102 18 33 103 10 33 104 26 30 105 62 30 106 38 30 107 15 34 108 29 34 109 4 34 110 41 35 111 158 35 112 154 35 113 202 36 114 5 36 115 197 36 116 32 26 117 53 26 118 29 26 119 204 4 120 0 4 121 196 4 122 35 30 123 55 30 124 31 30 125 5 37 126 34 37 127 14 37 128 42 38 129 144 38 130 140 38 131 3 39 132 38 39 133 10 39 134 47 40 135 63 40 136 39 40 137 40 48 174 56 48 175 32 48 176 42 49 177 58 49 178 66 49 179 203 30 180 55 30 181 207 30 182 36 30 183 49 30 184 25 30 185 43 50 186 59 50 187 35 50 188 178 5 189 49 5 190 182 5 191 24 26 192 61 26 193 37 26 194 46 51 195 142 51 196 138 51 197 205 5 198 53 5 199 209 5 200 46 52 201 62 52 202 70 52 203 45 53 204 156 53 205 152 53 206 34 26 207 54 26 208 58 26 209 139 54 210 90 54 211 143 54 212 83 26 213 90 26 214 82 26 215 151 55 216 89 55 217 155 55 218 80 30 219 89 30 220 81 30 221 153 58 234 93 58 235 157 58 236 84 26 237 93 26 238 85 26 239 141 59 240 94 59 241 145 59 242 87 30 243 94 30 244 86 30 245 150 60 246 85 60 247 153 60 248 78 3 249 85 3 250 79 3 251 148 61 252 81 61 253 151 61 254 74 62 255 81 62 256 75 62 257 168 63 258 148 63 259 195 63 260 116 64 261 188 64 262 168 64 263 83 65 264 149 65 265 152 65 266 82 66 267 77 66 268 83 66 269 210 67 270 150 67 271 227 67 272 211 68 273 79 68 274 210 68 275 87 69 276 159 69 277 154 69 278 86 70 279 72 70 280 87 70 281 185 71 282 233 71 283 230 71 284 184 72 285 235 72 286 194 72 287 218 73 288 122 73 289 220 73 290 226 74 291 116 74 292 161 74 293 111 5 294 183 5 295 179 5 296 110 5 297 208 5 298 204 5 299 109 75 300 181 75 301 177 75 302 178 4 309 96 4 310 170 4 311 171 5 312 108 5 313 99 5 314 108 26 315 206 26 316 202 26 317 100 76 318 200 76 319 198 76 320 102 77 321 166 77 322 164 77 323 217 78 324 146 78 325 224 78 326 175 79 327 147 79 328 192 79 329 214 80 330 96 80 331 196 80 332 103 81 333 217 81 334 215 81 335 172 30 336 98 30 337 163 30 338 101 82 339 175 82 340 173 82 341 109 5 342 118 5 343 97 5 344 163 4 345 111 4 346 179 4 347 171 30 348 101 30 349 173 30 350 212 83 351 103 83 352 215 83 353 187 84 354 118 84 355 121 84 356 97 85 357 186 85 358 162 85 359 3 86 360 120 86 361 26 86 362 26 30 363 187 30 364 177 30 365 220 87 366 128 87 367 222 87 368 125 88 369 130 88 370 124 88 371 117 89 372 221 89 373 219 89 374 75 90 375 124 90 376 74 90 377 73 91 378 122 91 379 72 91 380 169 92 381 124 92 382 189 92 383 126 95 390 190 95 391 188 95 392 122 96 393 129 96 394 128 96 395 127 97 396 223 97 397 221 97 398 189 98 399 130 98 400 191 98 401 210 99 402 239 99 403 236 99 404 224 100 405 117 100 406 219 100 407 43 101 408 145 101 409 67 101 410 47 102 411 143 102 412 71 102 413 138 103 414 88 103 415 80 103 416 140 106 423 92 106 424 84 106 425 137 107 426 84 107 427 78 107 428 135 108 429 80 108 430 74 108 431 169 109 432 135 109 433 74 109 434 82 110 435 136 110 436 76 110 437 211 111 438 137 111 439 78 111 440 86 112 441 134 112 442 73 112 443 216 113 444 161 113 445 106 113 446 174 114 447 160 114 448 104 114 449 154 115 450 16 115 451 41 115 452 227 116 453 23 116 454 200 116 455 152 117 456 21 117 457 45 117 458 195 118 459 19 118 460 166 118 461 19 119 462 151 119 463 44 119 464 23 120 465 153 120 466 40 120 467 40 121 468 157 121 469 64 121 470 44 124 477 155 124 478 68 124 479 152 125 480 91 125 481 83 125 482 154 126 483 95 126 484 87 126 485 161 127 486 166 127 487 106 127 488 21 128 489 194 128 490 174 128 491 117 129 492 193 129 493 169 129 494 136 130 495 185 130 496 76 130 497 127 131 498 191 131 499 133 131 500 188 132 501 131 132 502 125 132 503 117 134 507 189 134 508 127 134 509 109 5 510 187 5 511 121 5 512 162 135 513 119 135 514 3 135 515 119 5 516 187 5 517 120 5 518 7 30 519 173 30 520 12 30 521 24 4 522 163 4 523 179 4 524 173 136 525 20 136 526 12 136 527 13 30 528 163 30 529 6 30 530 20 137 531 192 137 532 136 137 533 164 138 534 19 138 535 11 138 536 27 5 537 171 5 538 7 5 539 2 4 540 178 4 541 170 4 542 177 4 549 50 4 550 26 4 551 179 5 552 48 5 553 24 5 554 149 139 555 184 139 556 194 139 557 76 30 558 184 30 559 77 30 560 168 140 561 125 140 562 75 140 563 116 141 564 195 141 565 161 141 566 110 5 567 182 5 568 114 5 569 108 142 570 180 142 571 112 142 572 100 143 573 174 143 574 104 143 575 146 144 576 167 144 577 193 144 578 102 145 579 170 145 580 96 145 581 103 146 582 167 146 583 107 146 584 103 0 585 162 0 586 165 0 587 160 147 588 200 147 589 104 147 590 16 148 591 226 148 592 216 148 593 147 149 594 233 149 595 192 149 596 134 150 597 219 150 598 73 150 599 221 151 600 129 151 601 123 151 602 219 153 606 123 153 607 73 153 608 126 154 609 222 154 610 132 154 611 1 83 612 215 83 613 9 83 614 215 81 615 17 81 616 9 81 617 0 155 618 214 155 619 196 155 620 17 156 621 224 156 622 134 156 623 198 157 624 23 157 625 15 157 626 202 26 627 54 26 628 30 26 629 204 5 630 52 5 631 28 5 632 159 158 633 218 158 634 226 158 635 116 159 636 220 159 637 126 159 638 147 160 639 238 160 640 232 160 641 210 161 642 237 161 643 211 161 644 111 5 645 209 5 646 115 5 647 109 30 648 207 30 649 113 30 650 110 4 657 196 4 658 96 4 659 108 5 660 197 5 661 99 5 662 102 162 663 216 162 664 106 162 665 147 163 666 201 163 667 225 163 668 100 30 669 213 30 670 98 30 671 101 164 672 201 164 673 105 164 674 97 5 675 203 5 676 109 5 677 111 4 678 213 4 679 205 4 680 99 30 681 199 30 682 101 30 683 211 169 702 238 169 703 225 169 704 185 170 705 228 170 706 184 170 707 160 171 708 239 171 709 227 171 710 160 172 711 235 172 712 234 172 713 162 0 714 3 0 715 10 0 716 27 173 717 7 173 718 12 173 719 197 2 720 5 2 721 14 2 722 31 3 723 1 3 724 9 3 725 213 4 726 4 4 727 29 4 728 212 5 729 1 5 730 31 5 731 33 3 732 8 3 733 0 3 734 199 174 735 14 174 736 22 174 737 198 7 738 15 7 739 4 7 740 39 175 741 12 175 742 20 175 743 37 176 744 13 176 745 6 176 746 165 177 747 10 177 748 18 177 749 170 80 750 164 80 751 11 80 752 32 178 753 15 178 754 23 178 755 141 179 756 43 179 757 17 179 758 225 180 759 201 180 760 22 180 761 139 181 762 47 181 763 20 181 764 193 182 765 167 182 766 18 182 767 35 183 768 9 183 769 17 183 770 214 184 771 8 184 772 16 184 773 36 185 774 11 185 775 19 185 776 172 76 777 13 76 778 21 76 779 37 186 780 45 186 781 21 186 782 176 187 783 27 187 784 51 187 785 34 188 786 42 188 787 22 188 788 44 189 789 68 189 790 60 189 791 18 190 792 46 190 793 138 190 794 39 26 795 63 26 796 51 26 797 22 191 798 42 191 799 140 191 800 41 192 801 33 192 802 57 192 803 33 193 804 41 193 805 16 193 806 28 30 807 52 30 808 57 30 809 11 31 810 36 31 811 25 31 812 45 194 813 37 194 814 61 194 815 38 195 816 46 195 817 18 195 818 26 30 819 50 30 820 62 30 821 15 3 822 32 3 823 29 3 824 41 196 825 65 196 826 158 196 827 202 5 828 30 5 829 5 5 830 32 26 831 56 26 832 53 26 833 204 4 834 28 4 835 0 4 836 35 30 837 59 30 838 55 30 839 5 3 840 30 3 841 34 3 842 42 197 843 66 197 844 144 197 845 3 39 846 26 39 847 38 39 848 47 198 849 71 198 850 63 198 851 40 207 888 64 207 889 56 207 890 42 208 891 34 208 892 58 208 893 203 30 894 31 30 895 55 30 896 36 30 897 60 30 898 49 30 899 43 209 900 67 209 901 59 209 902 178 5 903 25 5 904 49 5 905 24 26 906 48 26 907 61 26 908 46 210 909 70 210 910 142 210 911 205 5 912 29 5 913 53 5 914 46 211 915 38 211 916 62 211 917 45 212 918 69 212 919 156 212 920 34 26 921 30 26 922 54 26 923 139 213 924 82 213 925 90 213 926 83 26 927 91 26 928 90 26 929 151 214 930 81 214 931 89 214 932 80 30 933 88 30 934 89 30 935 153 217 948 85 217 949 93 217 950 84 26 951 92 26 952 93 26 953 141 218 954 86 218 955 94 218 956 87 30 957 95 30 958 94 30 959 150 219 960 79 219 961 85 219 962 78 220 963 84 220 964 85 220 965 148 221 966 75 221 967 81 221 968 74 222 969 80 222 970 81 222 971 168 223 972 75 223 973 148 223 974 116 134 975 126 134 976 188 134 977 83 224 978 77 224 979 149 224 980 82 225 981 76 225 982 77 225 983 210 226 984 79 226 985 150 226 986 211 227 987 78 227 988 79 227 989 87 228 990 72 228 991 159 228 992 86 3 993 73 3 994 72 3 995 185 229 996 192 229 997 233 229 998 184 230 999 228 230 1000 235 230 1001 218 231 1002 72 231 1003 122 231 1004 226 232 1005 218 232 1006 116 232 1007 111 5 1008 115 5 1009 183 5 1010 110 5 1011 114 5 1012 208 5 1013 109 233 1014 113 233 1015 181 233 1016 178 4 1023 110 4 1024 96 4 1025 171 234 1026 176 234 1027 108 234 1028 108 26 1029 112 26 1030 206 26 1031 100 143 1032 104 143 1033 200 143 1034 102 235 1035 106 235 1036 166 235 1037 217 236 1038 107 236 1039 146 236 1040 175 237 1041 105 237 1042 147 237 1043 214 145 1044 102 145 1045 96 145 1046 103 238 1047 107 238 1048 217 238 1049 172 30 1050 100 30 1051 98 30 1052 101 164 1053 105 164 1054 175 164 1055 109 5 1056 121 5 1057 118 5 1058 163 4 1059 98 4 1060 111 4 1061 171 30 1062 99 30 1063 101 30 1064 212 239 1065 97 239 1066 103 239 1067 187 240 1068 186 240 1069 118 240 1070 97 5 1071 118 5 1072 186 5 1073 3 86 1074 119 86 1075 120 86 1076 26 30 1077 120 30 1078 187 30 1079 220 241 1080 122 241 1081 128 241 1082 125 242 1083 131 242 1084 130 242 1085 117 92 1086 127 92 1087 221 92 1088 75 243 1089 125 243 1090 124 243 1091 73 244 1092 123 244 1093 122 244 1094 169 245 1095 74 245 1096 124 245 1097 126 247 1104 132 247 1105 190 247 1106 122 248 1107 123 248 1108 129 248 1109 127 249 1110 133 249 1111 223 249 1112 189 250 1113 124 250 1114 130 250 1115 210 251 1116 227 251 1117 239 251 1118 224 252 1119 146 252 1120 117 252 1121 43 253 1122 141 253 1123 145 253 1124 47 254 1125 139 254 1126 143 254 1127 138 255 1128 142 255 1129 88 255 1130 140 258 1137 144 258 1138 92 258 1139 137 259 1140 140 259 1141 84 259 1142 135 260 1143 138 260 1144 80 260 1145 169 261 1146 193 261 1147 135 261 1148 82 262 1149 139 262 1150 136 262 1151 211 263 1152 225 263 1153 137 263 1154 86 264 1155 141 264 1156 134 264 1157 216 265 1158 226 265 1159 161 265 1160 174 266 1161 194 266 1162 160 266 1163 154 267 1164 159 267 1165 16 267 1166 227 268 1167 150 268 1168 23 268 1169 152 269 1170 149 269 1171 21 269 1172 195 270 1173 148 270 1174 19 270 1175 19 271 1176 148 271 1177 151 271 1178 23 272 1179 150 272 1180 153 272 1181 40 273 1182 153 273 1183 157 273 1184 44 276 1191 151 276 1192 155 276 1193 152 277 1194 156 277 1195 91 277 1196 154 278 1197 158 278 1198 95 278 1199 161 279 1200 195 279 1201 166 279 1202 21 280 1203 149 280 1204 194 280 1205 117 281 1206 146 281 1207 193 281 1208 136 282 1209 192 282 1210 185 282 1211 127 283 1212 189 283 1213 191 283 1214 188 284 1215 190 284 1216 131 284 1217 117 286 1221 169 286 1222 189 286 1223 109 287 1224 177 287 1225 187 287 1226 162 85 1227 186 85 1228 119 85 1229 119 5 1230 186 5 1231 187 5 1232 7 30 1233 171 30 1234 173 30 1235 24 4 1236 6 4 1237 163 4 1238 173 288 1239 175 288 1240 20 288 1241 13 30 1242 172 30 1243 163 30 1244 20 289 1245 175 289 1246 192 289 1247 164 290 1248 166 290 1249 19 290 1250 27 5 1251 176 5 1252 171 5 1253 2 4 1254 25 4 1255 178 4 1256 177 5 1263 181 5 1264 50 5 1265 179 4 1266 183 4 1267 48 4 1268 149 291 1269 77 291 1270 184 291 1271 76 30 1272 185 30 1273 184 30 1274 168 159 1275 188 159 1276 125 159 1277 116 292 1278 168 292 1279 195 292 1280 110 5 1281 178 5 1282 182 5 1283 108 293 1284 176 293 1285 180 293 1286 100 294 1287 172 294 1288 174 294 1289 146 295 1290 107 295 1291 167 295 1292 102 11 1293 164 11 1294 170 11 1295 103 296 1296 165 296 1297 167 296 1298 103 83 1299 97 83 1300 162 83 1301 160 297 1302 227 297 1303 200 297 1304 16 298 1305 159 298 1306 226 298 1307 147 299 1308 232 299 1309 233 299 1310 134 129 1311 224 129 1312 219 129 1313 221 300 1314 223 300 1315 129 300 1316 219 301 1320 221 301 1321 123 301 1322 126 302 1323 220 302 1324 222 302 1325 1 239 1326 212 239 1327 215 239 1328 215 303 1329 217 303 1330 17 303 1331 0 304 1332 8 304 1333 214 304 1334 17 305 1335 217 305 1336 224 305 1337 198 306 1338 200 306 1339 23 306 1340 202 26 1341 206 26 1342 54 26 1343 204 5 1344 208 5 1345 52 5 1346 159 307 1347 72 307 1348 218 307 1349 116 308 1350 218 308 1351 220 308 1352 147 309 1353 225 309 1354 238 309 1355 210 310 1356 236 310 1357 237 310 1358 111 5 1359 205 5 1360 209 5 1361 109 311 1362 203 311 1363 207 311 1364 110 4 1371 204 4 1372 196 4 1373 108 5 1374 202 5 1375 197 5 1376 102 312 1377 214 312 1378 216 312 1379 147 313 1380 105 313 1381 201 313 1382 100 30 1383 198 30 1384 213 30 1385 101 136 1386 199 136 1387 201 136 1388 97 5 1389 212 5 1390 203 5 1391 111 4 1392 98 4 1393 213 4 1394 99 30 1395 197 30 1396 199 30 1397 211 318 1416 237 318 1417 238 318 1418 185 319 1419 230 319 1420 228 319 1421 160 320 1422 234 320 1423 239 320 1424 160 321 1425 194 321 1426 235 321 1427</p>
        </triangles>
        <triangles material="Blue_Server_Light-material" count="72">
          <input semantic="VERTEX" source="#Cube_002-mesh-vertices" offset="0"/>
          <input semantic="NORMAL" source="#Cube_002-mesh-normals" offset="1"/>
          <input semantic="TEXCOORD" source="#Cube_002-mesh-map-0" offset="2" set="0"/>
          <p>60 41 138 69 41 139 61 41 140 59 42 141 66 42 142 58 42 143 70 43 144 143 43 145 142 43 146 66 44 147 145 44 148 144 44 149 57 45 150 64 45 151 65 45 152 60 46 153 48 46 154 49 46 155 62 47 156 71 47 157 70 47 158 56 3 159 52 3 160 53 3 161 207 5 162 54 5 163 206 5 164 209 4 165 52 4 166 208 4 167 54 3 168 59 3 169 58 3 170 50 46 171 63 46 172 62 46 173 93 56 222 158 56 223 157 56 224 92 3 225 95 3 226 93 3 227 89 57 228 156 57 229 155 57 230 88 46 231 91 46 232 89 46 233 183 4 303 114 4 304 182 4 305 180 5 306 113 5 307 112 5 308 191 93 384 131 93 385 190 93 386 222 94 387 133 94 388 132 94 389 144 104 417 94 104 418 92 104 419 142 105 420 90 105 421 88 105 422 155 122 471 69 122 472 68 122 473 157 123 474 65 123 475 64 123 476 133 133 504 190 133 505 132 133 506 50 5 543 180 5 544 51 5 545 48 4 546 182 4 547 49 4 548 129 152 603 222 152 604 128 152 605 114 4 651 209 4 652 208 4 653 113 5 654 206 5 655 112 5 656 230 30 684 229 30 685 228 30 686 235 165 687 229 165 688 234 165 689 233 166 690 231 166 691 230 166 692 231 167 693 238 167 694 237 167 695 231 30 696 236 30 697 229 30 698 229 168 699 239 168 700 234 168 701 60 199 852 68 199 853 69 199 854 59 200 855 67 200 856 66 200 857 70 201 858 71 201 859 143 201 860 66 202 861 67 202 862 145 202 863 57 203 864 56 203 865 64 203 866 60 204 867 61 204 868 48 204 869 62 205 870 63 205 871 71 205 872 56 3 873 57 3 874 52 3 875 207 5 876 55 5 877 54 5 878 209 4 879 53 4 880 52 4 881 54 3 882 55 3 883 59 3 884 50 206 885 51 206 886 63 206 887 93 215 936 95 215 937 158 215 938 92 3 939 94 3 940 95 3 941 89 216 942 91 216 943 156 216 944 88 46 945 90 46 946 91 46 947 183 4 1017 115 4 1018 114 4 1019 180 5 1020 181 5 1021 113 5 1022 191 246 1098 130 246 1099 131 246 1100 222 152 1101 223 152 1102 133 152 1103 144 256 1131 145 256 1132 94 256 1133 142 257 1134 143 257 1135 90 257 1136 155 274 1185 156 274 1186 69 274 1187 157 275 1188 158 275 1189 65 275 1190 133 285 1218 191 285 1219 190 285 1220 50 5 1257 181 5 1258 180 5 1259 48 4 1260 183 4 1261 182 4 1262 129 152 1317 223 152 1318 222 152 1319 114 4 1365 115 4 1366 209 4 1367 113 5 1368 207 5 1369 206 5 1370 230 30 1398 231 30 1399 229 30 1400 235 314 1401 228 314 1402 229 314 1403 233 315 1404 232 315 1405 231 315 1406 231 316 1407 232 316 1408 238 316 1409 231 30 1410 237 30 1411 236 30 1412 229 317 1413 236 317 1414 239 317 1415</p>
        </triangles>
      </mesh>
    </geometry>
  </library_geometries>
  <library_visual_scenes>
    <visual_scene id="Scene" name="Scene">
      <node id="Server" name="Server" type="NODE">
        <matrix sid="transform">1 0 0 5 0 1 0 -36 0 0 1 0 0 0 0 1</matrix>
        <instance_geometry url="#Cube_002-mesh" name="Server">
          <bind_material>
            <technique_common>
              <instance_material symbol="Server-material" target="#Server-material">
                <bind_vertex_input semantic="UVMap" input_semantic="TEXCOORD" input_set="0"/>
              </instance_material>
              <instance_material symbol="Blue_Server_Light-material" target="#Blue_Server_Light-material">
                <bind_vertex_input semantic="UVMap" input_semantic="TEXCOORD" input_set="0"/>
              </instance_material>
            </technique_common>
          </bind_material>
        </instance_geometry>
      </node>
    </visual_scene>
  </library_visual_scenes>
  <scene>
    <instance_visual_scene url="#Scene"/>
  </scene>
</COLLADA>